{
  "family": "eos-ui",
  "containerDefinitions": [
    {
      "image": "%IMAGE_URI%",
      "name": "eos-ui",
      "cpu": 128,
      "memory": 32,
      "essential": true,
      "portMappings": [
        {
          "containerPort": 80,
          "hostPort": 0
        }
      ],
      "environment": [
        {
          "name": "KEYCLOAK_URL",
          "value": "https://keycloakstg.aws.sothebys.com/auth"
        },
        {
          "name": "CONFIG_SERVER_URI",
          "value": "http://stb-api.stg.aws.sothebys.com/config-server"
        },
        {
          "name": "CONFIG_SERVER_USER",
          "value": "eos-ui-config"
        },
        {
          "name": "CONFIG_SERVER_PASSWORD",
          "value": "RS]>W.~ecRTE6jKo6go9:,`>"
        },
        {
          "name": "CONFIG_SERVER_LABEL",
          "value": "master"
        },
        {
          "name": "STATIC_PROFILES_ACTIVE",
          "value": "stg"
        }
      ],
      "logConfiguration": {
        "logDriver": "awslogs",
        "options": {
          "awslogs-group": "/stg/eos/eos-ui",
          "awslogs-region": "us-east-1",
          "awslogs-stream-prefix": "eos-ui"
        }
      }
    }
  ]
}
